600.999954452,-0.000242363,14.000024000,14.000000000,38.000000000,15.000000000,0.380221844,23.446370422
601.000049056,-0.000899483,14.199910800,14.000000000,38.000000000,15.000000000,0.380221844,23.446370422
600.999839095,-0.001271950,14.400597600,14.000000000,38.000000000,15.000000000,0.380221844,23.446370422
601.000121536,0.000439629,14.599584400,14.000000000,38.000000000,15.000000000,0.380221844,23.446370422
600.999835891,-0.001236473,14.800671200,14.000000000,38.000000000,15.000000000,0.380221844,23.446370422
600.999978713,0.000320381,15.000057998,14.000000000,38.000000000,15.000000000,0.380221844,23.446370422
601.000135116,0.000403389,15.198887598,14.000000000,38.000000000,15.000000000,0.380221844,23.446370422
601.000188903,0.000133385,15.398917198,14.000000000,38.000000000,15.000000000,0.380221844,23.446370422
601.000125579,0.000398277,15.599546798,14.000000000,38.000000000,15.000000000,0.380221844,23.446370422
600.999967727,0.000152153,15.800276398,14.000000000,38.000000000,15.000000000,0.380221844,23.446370422
601.000004958,0.000297112,16.000106001,14.000000000,38.000000000,15.000000000,0.380221844,23.446370422
601.000023345,0.000402321,16.199941001,14.000000000,38.000000000,15.000000000,0.380221844,23.446370422
600.999918670,-0.000482689,16.400976001,14.000000000,38.000000000,15.000000000,0.380221844,23.446370422
601.000011672,-0.001269432,16.600911001,14.000000000,38.000000000,15.000000000,0.380221844,23.446370422
601.000063247,-0.000745293,16.799646001,14.000000000,38.000000000,15.000000000,0.380221844,23.446370422
601.000029296,-0.000957542,16.999881000,14.000000000,38.000000000,15.000000000,0.380221844,23.446370422
601.000156020,0.000418266,17.199283400,14.000000000,38.000000000,15.000000000,0.380221844,23.446370422
601.000164108,0.000439476,17.399385800,14.000000000,38.000000000,15.000000000,0.380221844,23.446370422
601.000096587,-0.000432793,17.599188200,14.000000000,38.000000000,15.000000000,0.380221844,23.446370422
601.000059509,-0.000739265,17.799590600,14.000000000,38.000000000,15.000000000,0.380221844,23.446370422
