LOCALNAME,POSITION,Calibration
XXXXX,0,
SCIPP-EL-14,1,
SCIPP-EL-04,2,
SCIPP-EL-08,3,
SCIPP-EL-15,4,
BNL-21,5,
BNL-22,6,
BNL-20,7,
BNL-23,8,
BNL-24,9,
BNL-25,10,
BNL-26,11,
BNL-27,12,
LBL-EL-08-at-BNL,13,
