593.310472520,-32.977344188,16.217782364
688.702805780,-30.442737453,16.217782364
686.141531835,65.953241591,16.217782364
590.749198576,63.418634856,16.217782364
495.310488112,-33.032625003,16.217782364
590.702821371,-30.498018268,16.217782364
588.141547427,65.897960776,16.217782364
492.749214167,63.363354041,16.217782364
397.310503704,-33.087905818,16.217782364
492.702836963,-30.553299083,16.217782364
490.141563019,65.842679960,16.217782364
394.749229759,63.308073226,16.217782364
299.310519295,-33.143186633,16.217782364
394.702852555,-30.608579899,16.217782364
392.141578610,65.787399145,16.217782364
296.749245351,63.252792410,16.217782364
201.310534887,-33.198467448,16.217782364
296.702868146,-30.663860714,16.217782364
294.141594202,65.732118330,16.217782364
198.749260942,63.197511595,16.217782364
103.310550479,-33.253748264,16.217782364
198.702883738,-30.719141529,16.217782364
196.141609794,65.676837515,16.217782364
100.749276534,63.142230780,16.217782364
5.310566070,-33.309029079,16.217782364
100.702899330,-30.774422344,16.217782364
98.141625385,65.621556699,16.217782364
2.749292126,63.086949965,16.217782364
-92.689418338,-33.364309894,16.217782364
2.702914921,-30.829703159,16.217782364
0.141640977,65.566275884,16.217782364
-95.250692283,63.031669150,16.217782364
-190.689402746,-33.419590709,16.217782364
-95.297069487,-30.884983975,16.217782364
-97.858343431,65.510995069,16.217782364
-193.250676691,62.976388334,16.217782364
-288.689387155,-33.474871525,16.217782364
-193.297053895,-30.940264790,16.217782364
-195.858327840,65.455714254,16.217782364
-291.250661099,62.921107519,16.217782364
-386.689371563,-33.530152340,16.217782364
-291.297038303,-30.995545605,16.217782364
-293.858312248,65.400433439,16.217782364
-389.250645508,62.865826704,16.217782364
-484.689355971,-33.585433155,16.217782364
-389.297022712,-31.050826420,16.217782364
-391.858296656,65.345152623,16.217782364
-487.250629916,62.810545889,16.217782364
-582.689340380,-33.640713970,16.217782364
-487.297007120,-31.106107235,16.217782364
-489.858281065,65.289871808,16.217782364
-585.250614324,62.755265073,16.217782364
