496.937685574,-33.214137738,16.000000000
592.330099729,-30.682577423,16.000000000
589.771904257,65.713483367,16.000000000
494.379490102,63.181923052,16.000000000
398.937699450,-33.266288857,16.000000000
494.330113606,-30.734728543,16.000000000
491.771918133,65.661332248,16.000000000
396.379503978,63.129771933,16.000000000
300.937713327,-33.318439977,16.000000000
396.330127482,-30.786879662,16.000000000
393.771932009,65.609181128,16.000000000
298.379517854,63.077620814,16.000000000
202.937727203,-33.370591096,16.000000000
298.330141358,-30.839030781,16.000000000
295.771945886,65.557030009,16.000000000
200.379531730,63.025469694,16.000000000
104.937741079,-33.422742216,16.000000000
200.330155234,-30.891181901,16.000000000
197.771959762,65.504878890,16.000000000
102.379545607,62.973318575,16.000000000
6.937754955,-33.474893335,16.000000000
102.330169110,-30.943333020,16.000000000
99.771973638,65.452727770,16.000000000
4.379559483,62.921167455,16.000000000
-91.062231169,-33.527044454,16.000000000
4.330182987,-30.995484140,16.000000000
1.771987514,65.400576651,16.000000000
-93.620426641,62.869016336,16.000000000
-189.062217292,-33.579195574,16.000000000
-93.669803137,-31.047635259,16.000000000
-96.227998610,65.348425531,16.000000000
-191.620412765,62.816865217,16.000000000
-287.062203416,-33.631346693,16.000000000
-191.669789261,-31.099786378,16.000000000
-194.227984733,65.296274412,16.000000000
-289.620398889,62.764714097,16.000000000
-385.062189540,-33.683497813,16.000000000
-289.669775385,-31.151937498,16.000000000
-292.227970857,65.244123293,16.000000000
-387.620385012,62.712562978,16.000000000
-483.062175664,-33.735648932,16.000000000
-387.669761508,-31.204088617,16.000000000
-390.227956981,65.191972173,16.000000000
-485.620371136,62.660411858,16.000000000
-581.062161788,-33.787800051,16.000000000
-485.669747632,-31.256239737,16.000000000
-488.227943105,65.139821054,16.000000000
-583.620357260,62.608260739,16.000000000
-679.062147911,-33.839951171,16.000000000
-583.669733756,-31.308390856,16.000000000
-586.227929228,65.087669934,16.000000000
-681.620343384,62.556109620,16.000000000
