288.947365350,-48.269840725,21.999952000,16.000000000,50.000000000,57.000000000,0.152390003,22.123480192
-299.109279259,-48.148763313,21.999952000,16.000000000,50.000000000,57.000000000,0.152390003,22.123480192
-592.740263750,-47.752804597,21.999952000,16.000000000,50.000000000,57.000000000,0.152390003,22.123480192
