593.428148335,-33.347999520,16.273467375
688.823444572,-30.927476505,16.273467375
686.377454650,65.471496692,16.273467375
590.982158412,63.050973677,16.273467375
495.428167896,-33.286079838,16.273467375
590.823464134,-30.865556823,16.273467375
588.377474211,65.533416374,16.273467375
492.982177974,63.112893359,16.273467375
397.428187457,-33.224160156,16.273467375
492.823483695,-30.803637141,16.273467375
490.377493773,65.595336056,16.273467375
394.982197535,63.174813041,16.273467375
299.428207019,-33.162240473,16.273467375
394.823503257,-30.741717458,16.273467375
392.377513334,65.657255738,16.273467375
296.982217096,63.236732723,16.273467375
201.428226580,-33.100320791,16.273467375
296.823522818,-30.679797776,16.273467375
294.377532896,65.719175420,16.273467375
198.982236658,63.298652405,16.273467375
103.428246142,-33.038401109,16.273467375
198.823542380,-30.617878094,16.273467375
196.377552457,65.781095102,16.273467375
100.982256219,63.360572087,16.273467375
5.428265703,-32.976481427,16.273467375
100.823561941,-30.555958412,16.273467375
98.377572019,65.843014784,16.273467375
2.982275781,63.422491769,16.273467375
-92.571714735,-32.914561745,16.273467375
2.823581503,-30.494038730,16.273467375
0.377591580,65.904934466,16.273467375
-95.017704658,63.484411451,16.273467375
-190.571695174,-32.852642063,16.273467375
-95.176398936,-30.432119048,16.273467375
-97.622388858,65.966854148,16.273467375
-193.017685096,63.546331133,16.273467375
-288.571675612,-32.790722381,16.273467375
-193.176379374,-30.370199366,16.273467375
-195.622369297,66.028773830,16.273467375
-291.017665535,63.608250815,16.273467375
-386.571656051,-32.728802699,16.273467375
-291.176359813,-30.308279684,16.273467375
-293.622349735,66.090693512,16.273467375
-389.017645973,63.670170497,16.273467375
-484.571636489,-32.666883017,16.273467375
-389.176340251,-30.246360002,16.273467375
-391.622330174,66.152613194,16.273467375
-487.017626412,63.732090179,16.273467375
-582.571616928,-32.604963335,16.273467375
-487.176320690,-30.184440320,16.273467375
-489.622310612,66.214532876,16.273467375
-585.017606850,63.794009861,16.273467375
